%YAML 1.1
%TAG !u! tag:unity3d.com,2011:
--- !u!1045 &1
EditorBuildSettings:
  m_ObjectHideFlags: 0
  serializedVersion: 2
  m_Scenes:
  - enabled: 0
    path: Assets/Scenes/MainMenu.unity
    guid: d7f4f312d3c1848b591362e5cfefd5b5
  - enabled: 0
    path: Assets/Scenes/Game.unity
    guid: 9474b5222364443a38a59de2451d197f
  - enabled: 1
    path: Assets/Scenes/TFMGame.unity
    guid: 251257bb9e4204d6383f842fc9d668eb
  m_configObjects: {}
